…
tdm <- RMeCab::docMatrixDF(
    charVec = iconv(lyrics$X2, from = "UTF-8", to = "CP932"),
    pos = iconv(POS$X1, from = "UTF-8", to = "CP932"),
    minFreq = 30,
    weight = "tf*idf",
    mecabrc = MECABRC
)
```

これをイイ感じに加工して以下のようなかたちにする。辞書がアレで名詞じゃなさそうなのも混じっているが、このままでいく。

```R
> doc
# A tibble: 46,924 x 4
   termid word         sid    freq
    <int> <chr>        <chr> <dbl>
 1      7 '            1     15.1 
 2     21 2人          1      3.49
 3     58 Don          1     21.5 
 4    180 t            1     18.3 
 5    222 お願い       1      6.46
 6    314 アスファルト 1      6.43
 7    323 ガラス       1      6.36
 8    325 キス         1      8.24
 9    336 サヨナラ     1     10.6 
10    368 ハート       1      4.18
# ... with 46,914 more rows
```
…
aff <- affinity(transactions)
t <- aff %>%
    as("matrix") %>%
    as_tibble(rownames = NA) %>%
    rownames_to_column() %>%
    select(rowname, 恋) %>%
    arrange(desc(恋))
```

affinityはここでは共起のしやすさみたいなもので、値が大きいほど共起しやすいといえる。たとえば「恋」という表現については、こういう単語が含まれている歌詞をあげられることが期待されるということ。

```R
> t
# A tibble: 786 x 2
   rowname    恋
   <chr>   <dbl>
 1 好き    0.224
 2 君      0.209
 3 胸      0.208
 4 僕      0.191
 5 心      0.181
 6 気持ち  0.174
 7 2人     0.171
 8 友達    0.157
 9 愛      0.154
10 ハート  0.154
# ... with 776 more rows
```
…
