…
```r
use_imap <- \(input) {
  purrr::imap(input, \(x, y) {
    data.frame(
      name = y,
      title = x$title,
      medium = x$medium,
      year = x$year
    )
  }) |>
    purrr::list_rbind() |>
    dplyr::as_tibble()
}
use_imap(dat)
#> # A tibble: 4,284 × 4
#>    name        title                   medium                               year
#>    <chr>       <chr>                   <chr>                               <dbl>
#>  1 Absalon     Proposals for a Habitat Video, monitor or projection, colo…  1990
#>  2 Absalon     Cell No. 1              Wood, fibreboard, fabric and fluor…  1992
#>  3 Absalon     Solutions               Video, monitor or projection, colo…  1992
#>  4 Absalon     Noises                  Video, monitor or projection, colo…  1993
#>  5 Absalon     Battle                  Video, monitor or projection, colo…  1993
#>  6 Absalon     Assassinations          Video, monitor or projection, colo…  1993
#>  7 Abts, Tomma Noeme                   Oil paint and acrylic paint on can…  2004
#>  8 Abts, Tomma Untitled # 1            Graphite, coloured graphite and in…  2004
#>  9 Abts, Tomma Untitled no. 6          Graphite on paper                    2008
#> 10 Abts, Tomma Untitled no. 8          Graphite on paper                    2008
#> # ℹ 4,274 more rows
```

これは、たとえば、次のように書くことができます。

``` r
use_transpose <- \(input) {
  input_t <- purrr::list_transpose(input)
  dplyr::tibble(
    name = rep(names(input), vctrs::list_sizes(input_t$title)),
    title = unlist(input_t$title, use.names = FALSE),
    medium = unlist(input_t$medium, use.names = FALSE),
    year = unlist(input_t$year, use.names = FALSE)
  )
}
use_transpose(dat)
#> # A tibble: 4,284 × 4
#>    name        title                   medium                               year
#>    <chr>       <chr>                   <chr>                               <dbl>
#>  1 Absalon     Proposals for a Habitat Video, monitor or projection, colo…  1990
#>  2 Absalon     Cell No. 1              Wood, fibreboard, fabric and fluor…  1992
#>  3 Absalon     Solutions               Video, monitor or projection, colo…  1992
#>  4 Absalon     Noises                  Video, monitor or projection, colo…  1993
#>  5 Absalon     Battle                  Video, monitor or projection, colo…  1993
#>  6 Absalon     Assassinations          Video, monitor or projection, colo…  1993
#>  7 Abts, Tomma Noeme                   Oil paint and acrylic paint on can…  2004
#>  8 Abts, Tomma Untitled # 1            Graphite, coloured graphite and in…  2004
#>  9 Abts, Tomma Untitled no. 6          Graphite on paper                    2008
#> 10 Abts, Tomma Untitled no. 8          Graphite on paper                    2008
#> # ℹ 4,274 more rows
```
…
