…
たとえば、次はART FROM CODEからの例ですが、こういうデータを用意しておいて、

```r
n <- 50
dat <- dplyr::tibble(
  x0 = runif(n),
  y0 = runif(n),
  x1 = x0 + runif(n, min = -.2, max = .2),
  y1 = y0 + runif(n, min = -.2, max = .2),
  shade = runif(n),
  size = runif(n)
)
dat
#> # A tibble: 50 × 6
#>        x0     y0      x1      y1 shade  size
#>     <dbl>  <dbl>   <dbl>   <dbl> <dbl> <dbl>
#>  1 0.988  0.938   0.965   0.990  0.540 0.186
#>  2 0.455  0.746   0.625   0.811  0.818 0.102
#>  3 0.182  0.0389  0.227  -0.0856 0.134 0.314
#>  4 0.0276 0.271  -0.0288  0.122  0.103 0.527
#>  5 0.160  0.131   0.347   0.173  0.470 0.878
#>  6 0.527  0.927   0.405   0.930  0.157 0.106
#>  7 0.329  0.189   0.461   0.0136 0.691 0.491
#>  8 0.0605 0.407   0.231   0.341  0.630 0.960
#>  9 0.439  0.931   0.316   0.883  0.879 0.799
#> 10 0.863  0.737   0.754   0.618  0.348 0.566
#> # ℹ 40 more rows
```
…
dat
#> # A tibble: 1,440 × 3
#>      pid   sid  pos[,1]    [,2]   [,3]  [,4]
#>    <int> <int>    <dbl>   <dbl>  <dbl> <dbl>
#>  1     1     1  0.00335 -0.0117 0.0210     1
#>  2     1     2  0.0410  -0.0978 0.0816     1
#>  3     1     3  0.0100  -0.0763 0.147      1
#>  4     1     4  0.0346  -0.0432 0.0968     1
#>  5     1     5  0.0142  -0.117  0.0826     1
#>  6     1     6 -0.0816  -0.153  0.118      1
#>  7     1     7 -0.114   -0.239  0.0586     1
#>  8     1     8 -0.188   -0.211  0.0624     1
#>  9     1     9 -0.155   -0.248  0.0319     1
#> 10     1    10 -0.216   -0.280  0.0678     1
#> # ℹ 1,430 more rows
```
…
