…
前者は、前処理を経てfitに渡されるべき変数を記述するために用いられ、後者は、実際にfitするモデルを記述するために用いられます。私たちがformulaと聞いて思い浮かべるだろうやつは、おそらく後者の役割を担うものです。にもかかわらずと言いますか、何を隠そう、後者がとくに指定されない場合には、なんと前者が流用されています。

注意点として、当たり前ですが、こうして`model formula`を明示的に指定した場合、モデルの予測値は`log1p`されているため、RMSEとかを計算したいなーというときには次のような感じの書き方になります。


```r
pred <-
  augment(
    extract_fit_parsnip(base_wf),
    new_data = prep(ames_rec) |> bake(new_data = ames_test),
  ) |>
  dplyr::select(Sale_Price, .pred)

pred
#> # A tibble: 733 × 2
#>    Sale_Price .pred
#>         <int> <dbl>
#>  1     215000  12.1
#>  2     105000  11.7
#>  3     244000  12.2
#>  4     189900  12.1
#>  5     236500  12.5
#>  6     180400  12.1
#>  7     171500  12.2
#>  8     149000  11.9
#>  9     105500  11.5
#> 10     306000  12.6
#> # ℹ 723 more rows
…
