…
    # ツモ切りなら末尾に"_"を付ける
    pai = dplyr::if_else(tsumogiri,
      paste0(pai, "_"),
      pai
    ),
    # リーチ宣言牌なら末尾に"*"を付ける
    pai = dplyr::if_else(
      dplyr::lag(type, default = "") == "reach",
      paste0(pai, "*"),
      pai
    ),
    .by = c(game_id, round_id, actor)
  )
paifu
#> # A tibble: 1,009 × 12
#>    game_id round_id event_id type  actor target pai   tsumogiri consumed
#>      <int>    <int>    <int> <chr> <int>  <int> <chr> <lgl>     <list>
#>  1       1        1        1 tsumo     0     NA s3    FALSE     <NULL>
#>  2       1        1        2 dahai     0     NA z7    FALSE     <NULL>
#>  3       1        1        3 tsumo     1     NA m9    FALSE     <NULL>
#>  4       1        1        4 dahai     1     NA z4    FALSE     <NULL>
#>  5       1        1        5 tsumo     2     NA p5    FALSE     <NULL>
#>  6       1        1        6 dahai     2     NA z1    FALSE     <NULL>
#>  7       1        1        7 tsumo     3     NA z2    FALSE     <NULL>
#>  8       1        1        8 dahai     3     NA z7    FALSE     <NULL>
#>  9       1        1        9 tsumo     0     NA p6    FALSE     <NULL>
#> 10       1        1       10 dahai     0     NA m7    FALSE     <NULL>
#> # ℹ 999 more rows
#> # ℹ 3 more variables: dora_marker <chr>, deltas <list>, ura_markers <list>
…
  json_log[["round_info"]] |>
  dplyr::rowwise() |>
  dplyr::reframe(
    game_id = game_id,
    round_id = round_id,
    actor = 0:3,
    tehais
  ) |>
  dplyr::mutate(
    qipai = list(trans_tile(as.character(tehais))),
    .by = c(game_id, round_id, actor),
    .keep = "unused"
  )
qipai
#> # A tibble: 40 × 4
#>    game_id round_id actor qipai
#>      <int>    <int> <int> <list>
#>  1       1        1     0 <chr [13]>
#>  2       1        1     1 <chr [13]>
#>  3       1        1     2 <chr [13]>
#>  4       1        1     3 <chr [13]>
#>  5       1        2     0 <chr [13]>
#>  6       1        2     1 <chr [13]>
#>  7       1        2     2 <chr [13]>
#>  8       1        2     3 <chr [13]>
#>  9       1        3     0 <chr [13]>
#> 10       1        3     1 <chr [13]>
#> # ℹ 30 more rows
```
…
tehais
#> # A tibble: 495 × 5
#>    game_id round_id actor event_id last_state
#>      <int>    <int> <int>    <int> <paistr>
#>  1       1        1     0        2 <13>'m1134457p67s35z66'
#>  2       1        1     0       10 <13>'m113445p667s35z66'
#>  3       1        1     0       18 <13>'m1133445p66s35z66'
#>  4       1        1     0       26 <13>'m1133445p66s35z66'
#>  5       1        1     0       30 <13>'m1133445p66s3,z666-'
#>  6       1        1     0       38 <13>'m113345p66s34,z666-'
#>  7       1        1     0       46 <13>'m113345p66s34,z666-'
#>  8       1        1     0       54 <13>'m113345p66s34,z666-'
#>  9       1        1     0       62 <13>'m113345p66s34,z666-'
#> 10       1        1     0       70 <13>'m113345p66s34,z666-'
#> # ℹ 485 more rows
```
…
dat
#> # A tibble: 495 × 9
#>    game_id round_id actor event_id  rank    id n_xiangting n_tingpai is_tenpai
#>      <int>    <int> <fct>    <int> <dbl> <int>       <int>     <int> <lgl>
#>  1       1        1 1            1     4     1           2         5 FALSE
#>  2       1        1 1            2     4     1           2        11 FALSE
#>  3       1        1 1            3     4     1           1         3 FALSE
#>  4       1        1 1            4     4     1           1         3 FALSE
#>  5       1        1 1            5     4     1           1         4 FALSE
#>  6       1        1 1            6     4     1           1         5 FALSE
#>  7       1        1 1            7     4     1           1         5 FALSE
#>  8       1        1 1            8     4     1           1         5 FALSE
#>  9       1        1 1            9     4     1           1         5 FALSE
#> 10       1        1 1           10     4     1           1         5 FALSE
#> # ℹ 485 more rows
```
…
